^C:\TWITTER\TWITTERPAC\TWITTERPAC\FEED.CPP
/c /I"C:\TWITTER\LIBRARIES\ASIO-1.20.0\INCLUDE" /Zi /nologo /W3 /WX- /diagnostics:column /sdl /O2 /Oi /GL /D NDEBUG /D _CONSOLE /D _UNICODE /D UNICODE /Gm- /EHsc /MD /GS /Gy /fp:precise /permissive- /Zc:wchar_t /Zc:forScope /Zc:inline /std:c++20 /Fo"X64\RELEASE\\" /Fd"X64\RELEASE\VC142.PDB" /external:W3 /Gd /TP /FC C:\TWITTER\TWITTERPAC\TWITTERPAC\FEED.CPP
^C:\TWITTER\TWITTERPAC\TWITTERPAC\POST.CPP
/c /I"C:\TWITTER\LIBRARIES\ASIO-1.20.0\INCLUDE" /Zi /nologo /W3 /WX- /diagnostics:column /sdl /O2 /Oi /GL /D NDEBUG /D _CONSOLE /D _UNICODE /D UNICODE /Gm- /EHsc /MD /GS /Gy /fp:precise /permissive- /Zc:wchar_t /Zc:forScope /Zc:inline /std:c++20 /Fo"X64\RELEASE\\" /Fd"X64\RELEASE\VC142.PDB" /external:W3 /Gd /TP /FC C:\TWITTER\TWITTERPAC\TWITTERPAC\POST.CPP
^C:\TWITTER\TWITTERPAC\TWITTERPACSERVER\FRIENDSNETWORK.CPP
/c /I"C:\TWITTER\LIBRARIES\ASIO-1.20.0\INCLUDE" /Zi /nologo /W3 /WX- /diagnostics:column /sdl /O2 /Oi /GL /D NDEBUG /D _CONSOLE /D _UNICODE /D UNICODE /Gm- /EHsc /MD /GS /Gy /fp:precise /permissive- /Zc:wchar_t /Zc:forScope /Zc:inline /std:c++20 /Fo"X64\RELEASE\\" /Fd"X64\RELEASE\VC142.PDB" /external:W3 /Gd /TP /FC C:\TWITTER\TWITTERPAC\TWITTERPACSERVER\FRIENDSNETWORK.CPP
^C:\TWITTER\TWITTERPAC\TWITTERPAC\PERSONALPROFILE.CPP
/c /I"C:\TWITTER\LIBRARIES\ASIO-1.20.0\INCLUDE" /Zi /nologo /W3 /WX- /diagnostics:column /sdl /O2 /Oi /GL /D NDEBUG /D _CONSOLE /D _UNICODE /D UNICODE /Gm- /EHsc /MD /GS /Gy /fp:precise /permissive- /Zc:wchar_t /Zc:forScope /Zc:inline /std:c++20 /Fo"X64\RELEASE\\" /Fd"X64\RELEASE\VC142.PDB" /external:W3 /Gd /TP /FC C:\TWITTER\TWITTERPAC\TWITTERPAC\PERSONALPROFILE.CPP
^C:\TWITTER\TWITTERPAC\TWITTERPAC\USERMENU.CPP
/c /I"C:\TWITTER\LIBRARIES\ASIO-1.20.0\INCLUDE" /Zi /nologo /W3 /WX- /diagnostics:column /sdl /O2 /Oi /GL /D NDEBUG /D _CONSOLE /D _UNICODE /D UNICODE /Gm- /EHsc /MD /GS /Gy /fp:precise /permissive- /Zc:wchar_t /Zc:forScope /Zc:inline /std:c++20 /Fo"X64\RELEASE\\" /Fd"X64\RELEASE\VC142.PDB" /external:W3 /Gd /TP /FC C:\TWITTER\TWITTERPAC\TWITTERPAC\USERMENU.CPP
^C:\TWITTER\TWITTERPAC\TWITTERPACSERVER\CLIENTSOCKET.CPP
/c /I"C:\TWITTER\LIBRARIES\ASIO-1.20.0\INCLUDE" /Zi /nologo /W3 /WX- /diagnostics:column /sdl /O2 /Oi /GL /D NDEBUG /D _CONSOLE /D _UNICODE /D UNICODE /Gm- /EHsc /MD /GS /Gy /fp:precise /permissive- /Zc:wchar_t /Zc:forScope /Zc:inline /std:c++20 /Fo"X64\RELEASE\\" /Fd"X64\RELEASE\VC142.PDB" /external:W3 /Gd /TP /FC C:\TWITTER\TWITTERPAC\TWITTERPACSERVER\CLIENTSOCKET.CPP
^C:\TWITTER\TWITTERPAC\TWITTERPAC\CLIENTMAIN.CPP
/c /I"C:\TWITTER\LIBRARIES\ASIO-1.20.0\INCLUDE" /Zi /nologo /W3 /WX- /diagnostics:column /sdl /O2 /Oi /GL /D NDEBUG /D _CONSOLE /D _UNICODE /D UNICODE /Gm- /EHsc /MD /GS /Gy /fp:precise /permissive- /Zc:wchar_t /Zc:forScope /Zc:inline /std:c++20 /Fo"X64\RELEASE\\" /Fd"X64\RELEASE\VC142.PDB" /external:W3 /Gd /TP /FC C:\TWITTER\TWITTERPAC\TWITTERPAC\CLIENTMAIN.CPP
^C:\TWITTER\TWITTERPAC\TWITTERPAC\USER.CPP
/c /I"C:\TWITTER\LIBRARIES\ASIO-1.20.0\INCLUDE" /Zi /nologo /W3 /WX- /diagnostics:column /sdl /O2 /Oi /GL /D NDEBUG /D _CONSOLE /D _UNICODE /D UNICODE /Gm- /EHsc /MD /GS /Gy /fp:precise /permissive- /Zc:wchar_t /Zc:forScope /Zc:inline /std:c++20 /Fo"X64\RELEASE\\" /Fd"X64\RELEASE\VC142.PDB" /external:W3 /Gd /TP /FC C:\TWITTER\TWITTERPAC\TWITTERPAC\USER.CPP
